%YAML 1.1
%TAG !u! tag:unity3d.com,2011:
--- !u!319 &31900000
AvatarMask:
  m_ObjectHideFlags: 0
  m_PrefabParentObject: {fileID: 0}
  m_PrefabInternal: {fileID: 0}
  m_Name: Attack Mask
  m_Mask: 01000000010000000100000001000000010000000100000001000000010000000100000001000000010000000100000001000000
  m_Elements:
  - m_Path: 
    m_Weight: 1
  - m_Path: Bip001
    m_Weight: 0
  - m_Path: Bip001/Bip001 Footsteps
    m_Weight: 0
  - m_Path: Bip001/Bip001 Pelvis
    m_Weight: 0
  - m_Path: Bip001/Bip001 Pelvis/Bip001 L Thigh
    m_Weight: 0
  - m_Path: Bip001/Bip001 Pelvis/Bip001 L Thigh/Bip001 L Calf
    m_Weight: 0
  - m_Path: Bip001/Bip001 Pelvis/Bip001 L Thigh/Bip001 L Calf/Bip001 L Foot
    m_Weight: 0
  - m_Path: Bip001/Bip001 Pelvis/Bip001 L Thigh/Bip001 L Calf/Bip001 L Foot/Bip001
      L Toe0
    m_Weight: 0
  - m_Path: Bip001/Bip001 Pelvis/Bip001 L Thigh/Bip001 L Calf/Bip001 L Foot/Bip001
      L Toe0/Bip001 L Toe0Nub
    m_Weight: 0
  - m_Path: Bip001/Bip001 Pelvis/Bip001 R Thigh
    m_Weight: 0
  - m_Path: Bip001/Bip001 Pelvis/Bip001 R Thigh/Bip001 R Calf
    m_Weight: 0
  - m_Path: Bip001/Bip001 Pelvis/Bip001 R Thigh/Bip001 R Calf/Bip001 R Foot
    m_Weight: 0
  - m_Path: Bip001/Bip001 Pelvis/Bip001 R Thigh/Bip001 R Calf/Bip001 R Foot/Bip001
      R Toe0
    m_Weight: 0
  - m_Path: Bip001/Bip001 Pelvis/Bip001 R Thigh/Bip001 R Calf/Bip001 R Foot/Bip001
      R Toe0/Bip001 R Toe0Nub
    m_Weight: 0
  - m_Path: Bip001/Bip001 Pelvis/Bip001 Spine
    m_Weight: 1
  - m_Path: Bip001/Bip001 Pelvis/Bip001 Spine/Bip001 L Clavicle
    m_Weight: 1
  - m_Path: Bip001/Bip001 Pelvis/Bip001 Spine/Bip001 L Clavicle/Bip001 L UpperArm
    m_Weight: 1
  - m_Path: Bip001/Bip001 Pelvis/Bip001 Spine/Bip001 L Clavicle/Bip001 L UpperArm/Bip001
      L Forearm
    m_Weight: 1
  - m_Path: Bip001/Bip001 Pelvis/Bip001 Spine/Bip001 L Clavicle/Bip001 L UpperArm/Bip001
      L Forearm/Bip001 L Hand
    m_Weight: 1
  - m_Path: Bip001/Bip001 Pelvis/Bip001 Spine/Bip001 Neck
    m_Weight: 1
  - m_Path: Bip001/Bip001 Pelvis/Bip001 Spine/Bip001 Neck/Bip001 Head
    m_Weight: 1
  - m_Path: Bip001/Bip001 Pelvis/Bip001 Spine/Bip001 Neck/Bip001 Head/Bip001 HeadNub
    m_Weight: 1
  - m_Path: Bip001/Bip001 Pelvis/Bip001 Spine/Bip001 R Clavicle
    m_Weight: 1
  - m_Path: Bip001/Bip001 Pelvis/Bip001 Spine/Bip001 R Clavicle/Bip001 R UpperArm
    m_Weight: 1
  - m_Path: Bip001/Bip001 Pelvis/Bip001 Spine/Bip001 R Clavicle/Bip001 R UpperArm/Bip001
      R Forearm
    m_Weight: 1
  - m_Path: Bip001/Bip001 Pelvis/Bip001 Spine/Bip001 R Clavicle/Bip001 R UpperArm/Bip001
      R Forearm/Bip001 R Hand
    m_Weight: 1
  - m_Path: WK_HeavyIntantry
    m_Weight: 1
